<svg width="13" height="24" viewBox="0 0 13 24" fill="none" xmlns="http://www.w3.org/2000/svg">
<path d="M12.0781 13.5L12.7344 9.1875H8.5625V6.375C8.5625 5.15625 9.125 4.03125 11 4.03125H12.9219V0.328125C12.9219 0.328125 11.1875 0 9.54688 0C6.125 0 3.875 2.10938 3.875 5.85938V9.1875H0.03125V13.5H3.875V24H8.5625V13.5H12.0781Z" fill="#ACACAC"/>
</svg>
