<svg width="30" height="30" viewBox="0 0 30 30" fill="none" xmlns="http://www.w3.org/2000/svg">
<path d="M27.1406 11.9375H22.4375V10.2148C22.4375 9.41575 21.7874 8.76562 20.9883 8.76562H20.2545V6.35938H20.2532C20.2532 6.21708 20.1989 6.07724 20.0944 5.97268L15.2819 1.16018C15.1829 1.0612 15.0462 1 14.8952 1H1.54688C1.24484 1 1 1.24489 1 1.54688V25.5C1 25.802 1.24484 26.0469 1.54688 26.0469H6.46875V27.1406C6.46875 28.1659 7.30284 29 8.32812 29H15.2734C15.5755 29 15.8203 28.7551 15.8203 28.4531C15.8203 28.1511 15.5755 27.9062 15.2734 27.9062H8.32812C7.90594 27.9062 7.5625 27.5628 7.5625 27.1406V19.1192L15.4375 21.4094V21.9453C15.4375 23.2118 16.4679 24.2422 17.7344 24.2422C19.0009 24.2422 20.0312 23.2118 20.0312 21.9453V21.4094L27.9062 19.1192V27.1406C27.9062 27.5628 27.5628 27.9062 27.1406 27.9062H20.1953C19.8933 27.9062 19.6484 28.1511 19.6484 28.4531C19.6484 28.7551 19.8933 29 20.1953 29H27.1406C28.1659 29 29 28.1659 29 27.1406V13.7969C29 12.7716 28.1659 11.9375 27.1406 11.9375ZM21.3438 10.2148V11.9375H14.125V10.2148C14.125 10.0188 14.2845 9.85938 14.4805 9.85938H20.9883C21.1843 9.85938 21.3438 10.0188 21.3438 10.2148ZM15.442 2.8672L18.3874 5.8125H15.442V2.8672ZM2.09375 24.9531V2.09375H14.3483V6.35938C14.3483 6.66136 14.5931 6.90625 14.8952 6.90625H19.1608V8.76562H14.4805C13.6814 8.76562 13.0312 9.41575 13.0312 10.2148V11.9375H8.32812C7.30284 11.9375 6.46875 12.7716 6.46875 13.7969V24.9531H2.09375ZM17.7344 23.1484C17.071 23.1484 16.5312 22.6087 16.5312 21.9453V20.3047H18.9375V21.9453C18.9375 22.6087 18.3978 23.1484 17.7344 23.1484ZM19.4844 19.2109H15.9844C15.6823 19.2109 15.4375 19.4558 15.4375 19.7578V20.2703L7.5625 17.9801V13.7969C7.5625 13.3747 7.90594 13.0312 8.32812 13.0312H27.1406C27.5628 13.0312 27.9062 13.3747 27.9062 13.7969V17.9801L20.0312 20.2703V19.7578C20.0312 19.4558 19.7864 19.2109 19.4844 19.2109Z" fill="#0060A2"/>
<path d="M11.3906 9.42188C11.3906 9.11989 11.1458 8.875 10.8438 8.875H4.20316C3.90112 8.875 3.65628 9.11989 3.65628 9.42188C3.65628 9.72386 3.90112 9.96875 4.20316 9.96875H10.8438C11.1458 9.96875 11.3906 9.72386 11.3906 9.42188Z" fill="#0060A2"/>
<path d="M4.20316 6.90625H10.8438C11.1458 6.90625 11.3906 6.66136 11.3906 6.35938C11.3906 6.05739 11.1458 5.8125 10.8438 5.8125H4.20316C3.90112 5.8125 3.65628 6.05739 3.65628 6.35938C3.65628 6.66136 3.90112 6.90625 4.20316 6.90625Z" fill="#0060A2"/>
<path d="M17.7344 27.9062C17.5905 27.9062 17.4495 27.9647 17.3477 28.0665C17.246 28.1682 17.1875 28.3093 17.1875 28.4531C17.1875 28.597 17.246 28.738 17.3477 28.8397C17.4495 28.9414 17.5905 29 17.7344 29C17.8782 29 18.0193 28.9415 18.121 28.8397C18.2227 28.738 18.2812 28.597 18.2812 28.4531C18.2812 28.3093 18.2227 28.1682 18.121 28.0665C18.0193 27.9648 17.8782 27.9062 17.7344 27.9062Z" fill="#0060A2"/>
</svg>
