<svg width="24" height="24" viewBox="0 0 24 24" fill="none" xmlns="http://www.w3.org/2000/svg">
<path d="M12 17.2424C10.9631 17.2424 9.94959 16.9349 9.08749 16.3589C8.22538 15.7828 7.55346 14.9641 7.15667 14.0062C6.75989 13.0483 6.65607 11.9942 6.85835 10.9773C7.06063 9.96035 7.55992 9.02624 8.29308 8.29309C9.02624 7.55993 9.96034 7.06064 10.9773 6.85836C11.9942 6.65608 13.0482 6.7599 14.0062 7.15668C14.9641 7.55347 15.7828 8.2254 16.3589 9.0875C16.9349 9.9496 17.2424 10.9632 17.2424 12C17.2392 13.3894 16.6859 14.721 15.7034 15.7035C14.721 16.6859 13.3894 17.2392 12 17.2424ZM12 7.4356C11.0972 7.4356 10.2148 7.70329 9.46415 8.20484C8.71353 8.70638 8.1285 9.41925 7.78303 10.2533C7.43756 11.0873 7.34717 12.0051 7.52329 12.8905C7.69941 13.7759 8.13413 14.5892 8.77247 15.2275C9.41081 15.8659 10.2241 16.3006 11.1095 16.4767C11.9949 16.6528 12.9127 16.5624 13.7467 16.217C14.5808 15.8715 15.2936 15.2865 15.7952 14.5359C16.2967 13.7852 16.5644 12.9028 16.5644 12C16.5613 10.7904 16.0794 9.63126 15.2241 8.77594C14.3687 7.92063 13.2096 7.43873 12 7.4356Z" fill="#0060A2"/>
<path d="M12 5.70678C11.9101 5.70678 11.8239 5.67107 11.7603 5.60749C11.6967 5.54392 11.661 5.4577 11.661 5.3678V2.33898C11.661 2.24908 11.6967 2.16286 11.7603 2.09929C11.8239 2.03571 11.9101 2 12 2C12.0899 2 12.1761 2.03571 12.2397 2.09929C12.3033 2.16286 12.339 2.24908 12.339 2.33898V5.3678C12.339 5.4577 12.3033 5.54392 12.2397 5.60749C12.1761 5.67107 12.0899 5.70678 12 5.70678Z" fill="#0060A2"/>
<path d="M7.31016 7.65085C7.2204 7.65047 7.13446 7.61451 7.07118 7.55085L4.92881 5.41017C4.89731 5.37868 4.87233 5.34129 4.85528 5.30014C4.83824 5.25899 4.82947 5.21489 4.82947 5.17034C4.82947 5.08039 4.8652 4.99412 4.92881 4.93051C4.99241 4.86691 5.07868 4.83117 5.16864 4.83117C5.25859 4.83117 5.34486 4.86691 5.40847 4.93051L7.55084 7.07289C7.61398 7.1364 7.64941 7.22231 7.64941 7.31187C7.64941 7.40142 7.61398 7.48734 7.55084 7.55085C7.5193 7.58258 7.4818 7.60774 7.4405 7.62491C7.39919 7.64207 7.35489 7.65089 7.31016 7.65085Z" fill="#0060A2"/>
<path d="M5.3678 12.339H2.33898C2.24908 12.339 2.16286 12.3033 2.09929 12.2397C2.03572 12.1761 2 12.0899 2 12C2 11.9101 2.03572 11.8239 2.09929 11.7603C2.16286 11.6967 2.24908 11.661 2.33898 11.661H5.3678C5.4577 11.661 5.54392 11.6967 5.60749 11.7603C5.67107 11.8239 5.70678 11.9101 5.70678 12C5.70678 12.0899 5.67107 12.1761 5.60749 12.2397C5.54392 12.3033 5.4577 12.339 5.3678 12.339Z" fill="#0060A2"/>
<path d="M5.16781 19.1763C5.07829 19.1763 4.99238 19.141 4.92882 19.078C4.89731 19.0465 4.8723 19.0091 4.85524 18.9679C4.83819 18.9268 4.8294 18.8827 4.8294 18.8381C4.8294 18.7936 4.83819 18.7495 4.85524 18.7083C4.8723 18.6672 4.89731 18.6298 4.92882 18.5983L7.0712 16.4559C7.1348 16.3923 7.22107 16.3566 7.31103 16.3566C7.40098 16.3566 7.48725 16.3923 7.55086 16.4559C7.61446 16.5195 7.6502 16.6058 7.6502 16.6958C7.6502 16.7857 7.61446 16.872 7.55086 16.9356L5.40848 19.078C5.37681 19.1094 5.33925 19.1342 5.29794 19.1511C5.25664 19.168 5.21242 19.1765 5.16781 19.1763Z" fill="#0060A2"/>
<path d="M12 22C11.9101 22 11.8239 21.9643 11.7603 21.9007C11.6967 21.8371 11.661 21.7509 11.661 21.661V18.6322C11.661 18.5423 11.6967 18.4561 11.7603 18.3925C11.8239 18.3289 11.9101 18.2932 12 18.2932C12.0899 18.2932 12.1761 18.3289 12.2397 18.3925C12.3033 18.4561 12.339 18.5423 12.339 18.6322V21.661C12.339 21.7509 12.3033 21.8371 12.2397 21.9007C12.1761 21.9643 12.0899 22 12 22Z" fill="#0060A2"/>
<path d="M18.8305 19.1763C18.741 19.1763 18.6551 19.141 18.5915 19.078L16.4492 16.9356C16.3856 16.872 16.3498 16.7857 16.3498 16.6958C16.3498 16.6058 16.3856 16.5195 16.4492 16.4559C16.5128 16.3923 16.599 16.3566 16.689 16.3566C16.7789 16.3566 16.8652 16.3923 16.9288 16.4559L19.0712 18.5983C19.1184 18.6458 19.1505 18.7062 19.1634 18.772C19.1763 18.8377 19.1695 18.9058 19.1437 18.9676C19.118 19.0294 19.0745 19.0823 19.0187 19.1194C18.963 19.1565 18.8975 19.1763 18.8305 19.1763Z" fill="#0060A2"/>
<path d="M21.661 12.339H18.6322C18.5423 12.339 18.4561 12.3033 18.3925 12.2397C18.3289 12.1761 18.2932 12.0899 18.2932 12C18.2932 11.9101 18.3289 11.8239 18.3925 11.7603C18.4561 11.6967 18.5423 11.661 18.6322 11.661H21.661C21.7509 11.661 21.8371 11.6967 21.9007 11.7603C21.9643 11.8239 22 11.9101 22 12C22 12.0899 21.9643 12.1761 21.9007 12.2397C21.8371 12.3033 21.7509 12.339 21.661 12.339Z" fill="#0060A2"/>
<path d="M16.6898 7.65085C16.6229 7.65091 16.5574 7.63111 16.5016 7.59398C16.4459 7.55684 16.4024 7.50402 16.3766 7.44218C16.3509 7.38035 16.344 7.31227 16.3569 7.24655C16.3698 7.18082 16.4019 7.12039 16.4492 7.07289L18.5915 4.93051C18.623 4.89902 18.6604 4.87404 18.7016 4.85699C18.7427 4.83995 18.7868 4.83117 18.8314 4.83117C18.8759 4.83117 18.92 4.83995 18.9612 4.85699C19.0023 4.87404 19.0397 4.89902 19.0712 4.93051C19.1027 4.96201 19.1277 4.9994 19.1447 5.04055C19.1618 5.0817 19.1705 5.1258 19.1705 5.17034C19.1705 5.21489 19.1618 5.25899 19.1447 5.30014C19.1277 5.34129 19.1027 5.37868 19.0712 5.41017L16.9288 7.54916C16.8976 7.58098 16.8605 7.60635 16.8195 7.6238C16.7784 7.64125 16.7344 7.65044 16.6898 7.65085Z" fill="#0060A2"/>
</svg>
