<svg width="24" height="24" viewBox="0 0 24 24" fill="none" xmlns="http://www.w3.org/2000/svg">
<path d="M15.274 5.10997C15.2085 5.10997 15.1457 5.08513 15.0994 5.04092C15.0531 4.99671 15.027 4.93674 15.027 4.87422V3.23575C15.027 3.17323 15.0531 3.11326 15.0994 3.06905C15.1457 3.02483 15.2085 3 15.274 3C15.3395 3 15.4023 3.02483 15.4486 3.06905C15.495 3.11326 15.521 3.17323 15.521 3.23575V4.87422C15.521 4.93674 15.495 4.99671 15.4486 5.04092C15.4023 5.08513 15.3395 5.10997 15.274 5.10997Z" fill="#0060A2"/>
<path d="M12.6154 6.16024C12.5828 6.16027 12.5505 6.15414 12.5204 6.1422C12.4903 6.13026 12.463 6.11276 12.44 6.0907L11.2262 4.93198C11.1837 4.88706 11.1609 4.82827 11.1626 4.76777C11.1643 4.70727 11.1902 4.64971 11.2352 4.60699C11.2801 4.56428 11.3405 4.53968 11.4038 4.5383C11.4672 4.53692 11.5287 4.55885 11.5756 4.59957L12.7895 5.75711C12.8242 5.79001 12.848 5.83203 12.8577 5.87783C12.8673 5.92363 12.8626 5.97115 12.8439 6.01435C12.8252 6.05754 12.7936 6.09448 12.7529 6.12045C12.7122 6.14643 12.6643 6.16028 12.6154 6.16024Z" fill="#0060A2"/>
<path d="M19.1453 12.3911C19.1127 12.3912 19.0804 12.385 19.0503 12.3731C19.0202 12.3612 18.9929 12.3436 18.9699 12.3216L17.7561 11.1593C17.7331 11.1374 17.7149 11.1114 17.7025 11.0828C17.6901 11.0542 17.6837 11.0235 17.6837 10.9925C17.6837 10.9616 17.6901 10.9309 17.7025 10.9023C17.7149 10.8737 17.7331 10.8476 17.7561 10.8257C17.779 10.8038 17.8062 10.7865 17.8362 10.7746C17.8662 10.7628 17.8983 10.7567 17.9308 10.7567C17.9632 10.7567 17.9954 10.7628 18.0254 10.7746C18.0553 10.7865 18.0826 10.8038 18.1055 10.8257L19.3194 11.9845C19.3537 12.0174 19.3771 12.0594 19.3865 12.105C19.396 12.1506 19.3911 12.1978 19.3725 12.2408C19.3538 12.2837 19.3224 12.3205 19.2819 12.3464C19.2415 12.3723 19.194 12.3862 19.1453 12.3864V12.3911Z" fill="#0060A2"/>
<path d="M19.0366 8.69692C18.9711 8.69692 18.9083 8.67208 18.862 8.62787C18.8156 8.58366 18.7896 8.52369 18.7896 8.46116C18.7896 8.39864 18.8156 8.33868 18.862 8.29447C18.9083 8.25026 18.9711 8.22541 19.0366 8.22541H20.753C20.8185 8.22541 20.8813 8.25026 20.9277 8.29447C20.974 8.33868 21 8.39864 21 8.46116C21 8.52369 20.974 8.58366 20.9277 8.62787C20.8813 8.67208 20.8185 8.69692 20.753 8.69692H19.0366Z" fill="#0060A2"/>
<path d="M17.9314 6.16024C17.8825 6.16028 17.8346 6.14642 17.7939 6.12045C17.7532 6.09447 17.7215 6.05754 17.7029 6.01434C17.6842 5.97114 17.6794 5.92363 17.6891 5.87783C17.6988 5.83202 17.7225 5.79001 17.7573 5.7571L18.9699 4.59956C19.0163 4.55533 19.0791 4.53048 19.1446 4.53048C19.2102 4.53048 19.273 4.55533 19.3194 4.59956C19.3657 4.6438 19.3918 4.7038 19.3918 4.76636C19.3918 4.82892 19.3657 4.88892 19.3194 4.93315L18.1055 6.09069C18.0594 6.13496 17.9968 6.15998 17.9314 6.16024Z" fill="#0060A2"/>
<path d="M15.274 5.57322C14.7292 5.57335 14.1946 5.71394 13.7267 5.98014C13.2587 6.24634 12.8747 6.62827 12.6154 7.08556C12.7557 7.17242 12.8902 7.2677 13.0179 7.37082C13.1872 7.05445 13.4276 6.77768 13.7219 6.56025C14.0163 6.34283 14.3572 6.19013 14.7205 6.11305C15.0838 6.03598 15.4605 6.03642 15.8236 6.11436C16.1867 6.19231 16.5272 6.34582 16.821 6.56394C17.1147 6.78207 17.3544 7.05941 17.5229 7.37618C17.6913 7.69295 17.7845 8.04132 17.7956 8.39642C17.8067 8.75151 17.7355 9.10457 17.5872 9.43037C17.4388 9.75618 17.2169 10.0467 16.9373 10.2812C17.0378 10.4078 17.129 10.5409 17.2102 10.6796C17.6896 10.3009 18.0347 9.7901 18.1985 9.21711C18.3624 8.64411 18.3369 8.0368 18.1256 7.47814C17.9143 6.91948 17.5275 6.4367 17.018 6.09576C16.5085 5.75481 15.9012 5.57232 15.2789 5.57322H15.274Z" fill="#0060A2"/>
<path d="M17.2004 12.456C17.1991 11.6238 16.8522 10.8261 16.2358 10.2377C15.6194 9.64932 14.7837 9.3182 13.912 9.31695H13.8268C13.7805 9.18204 13.7261 9.0498 13.6638 8.92089C13.3144 8.21186 12.7288 7.63331 11.9984 7.27569C11.2681 6.91807 10.4342 6.80154 9.6271 6.94431C8.82001 7.08708 8.08523 7.48111 7.53762 8.0648C6.99001 8.64848 6.66044 9.38892 6.60043 10.1704C6.34565 10.1149 6.08503 10.0876 5.82371 10.089C5.06949 10.1039 4.35142 10.4004 3.82353 10.9148C3.29565 11.4293 3 12.1207 3 12.8408C3 13.561 3.29565 14.2524 3.82353 14.7668C4.35142 15.2813 5.06949 15.5777 5.82371 15.5926H14.0157C14.0276 15.5938 14.0396 15.5938 14.0515 15.5926C14.8986 15.5577 15.6989 15.212 16.2855 14.6277C16.8722 14.0433 17.1999 13.2653 17.2004 12.456ZM13.912 15.1188H5.82371C5.19956 15.1052 4.60575 14.859 4.16934 14.4329C3.73293 14.0067 3.48859 13.4344 3.48859 12.8385C3.48859 12.2425 3.73293 11.6702 4.16934 11.2441C4.60575 10.8179 5.19956 10.5717 5.82371 10.5582C6.38862 10.5522 6.94191 10.7114 7.40926 11.0144L7.51669 11.0757C7.57274 11.1013 7.63686 11.1059 7.69627 11.0884C7.75567 11.0709 7.80598 11.0327 7.83716 10.9813C7.86833 10.93 7.87808 10.8693 7.86446 10.8114C7.85084 10.7535 7.81484 10.7027 7.76366 10.669L7.65993 10.61C7.47573 10.4999 7.28342 10.4026 7.08449 10.3189C7.11173 9.631 7.38005 8.97173 7.84647 8.44671C8.31289 7.92169 8.95042 7.5613 9.65692 7.42327C10.3634 7.28523 11.098 7.37755 11.743 7.68542C12.388 7.9933 12.9061 8.49892 13.2143 9.12128C13.2538 9.19908 13.2884 9.28041 13.3205 9.35703C13.0127 9.41037 12.7145 9.50564 12.4351 9.63993C12.4051 9.65327 12.3783 9.67222 12.3561 9.69566C12.334 9.71909 12.317 9.74654 12.3061 9.77637C12.2953 9.80619 12.2908 9.83779 12.293 9.86929C12.2952 9.90079 12.304 9.93154 12.3189 9.95973C12.3338 9.98792 12.3545 10.013 12.3797 10.0334C12.4049 10.0538 12.4342 10.0692 12.4658 10.0786C12.4973 10.088 12.5305 10.0913 12.5635 10.0882C12.5964 10.0852 12.6283 10.0758 12.6574 10.0607C13.0457 9.87395 13.4747 9.77742 13.9095 9.77902C14.6506 9.77902 15.3614 10.0601 15.8855 10.5603C16.4096 11.0606 16.704 11.7391 16.704 12.4465C16.704 13.154 16.4096 13.8325 15.8855 14.3328C15.3614 14.833 14.6506 15.1141 13.9095 15.1141L13.912 15.1188Z" fill="#0060A2"/>
<path d="M5.59649 17.7993C5.55316 17.7992 5.5106 17.7883 5.47309 17.7676C5.43558 17.7469 5.40444 17.7171 5.3828 17.6813C5.36115 17.6454 5.34976 17.6048 5.34977 17.5634C5.34978 17.5221 5.36119 17.4815 5.38286 17.4456L6.26207 15.9922C6.27829 15.9654 6.29989 15.9418 6.32564 15.9229C6.35139 15.904 6.38078 15.8902 6.41214 15.8821C6.4435 15.8741 6.47622 15.872 6.50842 15.876C6.54062 15.8801 6.57167 15.8901 6.59981 15.9056C6.62794 15.9211 6.65261 15.9417 6.67239 15.9663C6.69218 15.9908 6.7067 16.0189 6.71513 16.0488C6.72356 16.0788 6.72573 16.11 6.72151 16.1407C6.7173 16.1715 6.70678 16.2011 6.69057 16.228L5.81135 17.6814C5.78959 17.7174 5.75826 17.7472 5.72053 17.7679C5.6828 17.7886 5.64001 17.7994 5.59649 17.7993Z" fill="#0060A2"/>
<path d="M9.20843 17.7993C9.1651 17.7992 9.12254 17.7883 9.08503 17.7676C9.04752 17.7469 9.01638 17.7171 8.99473 17.6813C8.97309 17.6455 8.9617 17.6048 8.96171 17.5635C8.96172 17.5221 8.97313 17.4815 8.9948 17.4456L9.87401 15.9922C9.88945 15.9641 9.9107 15.9392 9.93648 15.919C9.96226 15.8989 9.99204 15.884 10.024 15.8751C10.056 15.8662 10.0896 15.8637 10.1226 15.8675C10.1557 15.8713 10.1876 15.8815 10.2164 15.8974C10.2453 15.9133 10.2704 15.9346 10.2904 15.9601C10.3104 15.9855 10.3248 16.0145 10.3327 16.0454C10.3406 16.0763 10.3419 16.1084 10.3365 16.1398C10.3311 16.1712 10.3191 16.2012 10.3013 16.228L9.42206 17.6814C9.4004 17.7172 9.36926 17.7469 9.33177 17.7676C9.29427 17.7883 9.25174 17.7992 9.20843 17.7993Z" fill="#0060A2"/>
<path d="M6.4757 20C6.43244 20.0003 6.38985 19.9897 6.35222 19.9693C6.32392 19.9539 6.29909 19.9334 6.27916 19.9088C6.25923 19.8842 6.2446 19.856 6.23611 19.826C6.22762 19.796 6.22543 19.7647 6.22967 19.7338C6.23392 19.703 6.24451 19.6733 6.26084 19.6464L7.14129 18.193C7.17546 18.1416 7.22908 18.1049 7.29095 18.0905C7.35282 18.076 7.41815 18.0849 7.4733 18.1153C7.52845 18.1458 7.56915 18.1954 7.5869 18.2538C7.60464 18.3122 7.59807 18.3748 7.56854 18.4287L6.6881 19.8821C6.66655 19.9177 6.6356 19.9474 6.59834 19.9681C6.56108 19.9887 6.5188 19.9997 6.4757 20Z" fill="#0060A2"/>
<path d="M10.2692 20C10.2258 20 10.1833 19.989 10.1458 19.9683C10.1083 19.9476 10.0771 19.9178 10.0555 19.882C10.0338 19.8462 10.0224 19.8055 10.0224 19.7642C10.0225 19.7228 10.0339 19.6822 10.0555 19.6464L10.9347 18.193C10.9689 18.1416 11.0225 18.1049 11.0844 18.0905C11.1463 18.076 11.2116 18.0849 11.2668 18.1153C11.3219 18.1458 11.3626 18.1954 11.3804 18.2538C11.3981 18.3122 11.3915 18.3748 11.362 18.4287L10.4816 19.8821C10.46 19.9177 10.4291 19.9474 10.3918 19.9681C10.3545 19.9887 10.3123 19.9997 10.2692 20Z" fill="#0060A2"/>
<path d="M12.8191 17.7993C12.7758 17.7992 12.7332 17.7883 12.6957 17.7676C12.6582 17.7469 12.6271 17.7171 12.6054 17.6813C12.5838 17.6454 12.5724 17.6048 12.5724 17.5634C12.5724 17.5221 12.5838 17.4815 12.6055 17.4456L13.4798 15.9922C13.496 15.9654 13.5176 15.9418 13.5433 15.9229C13.5691 15.904 13.5985 15.8902 13.6298 15.8821C13.6612 15.8741 13.6939 15.872 13.7261 15.876C13.7583 15.8801 13.7894 15.8901 13.8175 15.9056C13.8456 15.9211 13.8703 15.9417 13.8901 15.9663C13.9099 15.9908 13.9244 16.0189 13.9328 16.0488C13.9413 16.0788 13.9434 16.11 13.9392 16.1407C13.935 16.1715 13.9245 16.2011 13.9083 16.228L13.0278 17.6814C13.0066 17.7165 12.9762 17.7458 12.9397 17.7665C12.9031 17.7871 12.8616 17.7984 12.8191 17.7993Z" fill="#0060A2"/>
</svg>
