<svg width="24" height="24" viewBox="0 0 24 24" fill="none" xmlns="http://www.w3.org/2000/svg">
<path d="M15.032 6.23683C14.9784 6.23677 14.9257 6.2215 14.8792 6.19255C14.8328 6.1636 14.7942 6.12198 14.7674 6.07188C14.7406 6.02179 14.7265 5.96497 14.7265 5.90714C14.7265 5.84931 14.7406 5.7925 14.7675 5.74241L15.6132 4.16522C15.6555 4.09347 15.7219 4.04212 15.7985 4.0219C15.8751 4.00167 15.9561 4.01414 16.0244 4.05668C16.0926 4.09923 16.1431 4.16857 16.165 4.25022C16.187 4.33186 16.1789 4.4195 16.1423 4.49483L15.2966 6.07202C15.2698 6.12208 15.2312 6.16367 15.1848 6.19259C15.1384 6.22152 15.0857 6.23677 15.032 6.23683Z" fill="#0060A2"/>
<path d="M12.784 6.23684C12.7303 6.23678 12.6776 6.22151 12.6312 6.19256C12.5847 6.1636 12.5461 6.12199 12.5193 6.07189C12.4925 6.02179 12.4784 5.96497 12.4784 5.90714C12.4785 5.84931 12.4926 5.7925 12.5194 5.74242L13.3636 4.16522C13.4041 4.08939 13.471 4.03403 13.5494 4.01131C13.6279 3.98859 13.7115 4.00038 13.7819 4.04409C13.8522 4.0878 13.9036 4.15985 13.9247 4.24438C13.9458 4.32891 13.9348 4.419 13.8943 4.49483L13.0486 6.07203C13.0217 6.12209 12.9832 6.16367 12.9367 6.1926C12.8903 6.22152 12.8376 6.23678 12.784 6.23684Z" fill="#0060A2"/>
<path d="M10.542 6.23684C10.4884 6.23678 10.4357 6.22151 10.3892 6.19256C10.3428 6.1636 10.3042 6.12199 10.2774 6.07189C10.2506 6.02179 10.2365 5.96497 10.2365 5.90714C10.2365 5.84931 10.2506 5.7925 10.2775 5.74242L11.1216 4.16522C11.1622 4.08939 11.229 4.03403 11.3075 4.01131C11.3859 3.98859 11.4695 4.00038 11.5399 4.04409C11.6103 4.0878 11.6616 4.15985 11.6827 4.24438C11.7038 4.32891 11.6929 4.419 11.6523 4.49483L10.8066 6.07203C10.7798 6.12209 10.7412 6.16367 10.6948 6.1926C10.6484 6.22152 10.5957 6.23678 10.542 6.23684Z" fill="#0060A2"/>
<path d="M8.29705 6.23684C8.24347 6.23724 8.19074 6.22246 8.14412 6.19399C8.10907 6.17245 8.07833 6.14366 8.05366 6.10927C8.02898 6.07487 8.01085 6.03556 8.00033 5.99359C7.98981 5.95162 7.9871 5.90781 7.99236 5.8647C7.99762 5.8216 8.01073 5.78004 8.03096 5.74242L8.87666 4.16522C8.91721 4.08939 8.98407 4.03403 9.06251 4.01131C9.14094 3.98859 9.22454 4.00038 9.29491 4.04409C9.36528 4.0878 9.41666 4.15985 9.43774 4.24438C9.45882 4.32891 9.44787 4.419 9.40731 4.49483L8.56162 6.07203C8.53481 6.12209 8.49624 6.16367 8.4498 6.1926C8.40337 6.22152 8.35069 6.23678 8.29705 6.23684Z" fill="#0060A2"/>
<path d="M6.3059 13.663C6.28711 13.6654 6.26811 13.6654 6.24932 13.663C6.17835 13.6486 6.11439 13.6076 6.06876 13.5473C6.02314 13.487 5.9988 13.4112 6.00005 13.3334C6.00005 9.32035 9.05861 6.92078 12.0071 6.92078C14.9555 6.92078 17.9713 9.2808 17.9988 13.2329C18.0004 13.2487 18.0004 13.2648 17.9988 13.2807C17.9988 13.3681 17.9666 13.4519 17.9092 13.5137C17.8519 13.5755 17.7741 13.6103 17.693 13.6103C17.6366 13.6096 17.5813 13.5927 17.533 13.5614C17.4846 13.5302 17.4448 13.4856 17.4177 13.4323C17.1868 12.951 16.4237 12.3709 15.8242 12.3709C15.0855 12.3709 14.4692 12.7697 14.2138 13.4108C14.1894 13.4711 14.1488 13.5222 14.0972 13.5574C14.0457 13.5926 13.9855 13.6104 13.9245 13.6084C13.8635 13.6065 13.8044 13.5849 13.7548 13.5465C13.7053 13.508 13.6675 13.4545 13.6465 13.3927C13.4416 12.7912 12.7763 12.3709 12.027 12.3709C11.2776 12.3709 10.6124 12.7912 10.409 13.3927C10.3881 13.4551 10.3502 13.5093 10.3002 13.5481C10.2503 13.5869 10.1907 13.6086 10.1291 13.6103C10.0693 13.6104 10.0107 13.5915 9.96066 13.556C9.91064 13.5206 9.87137 13.4701 9.84773 13.4108C9.59387 12.7697 8.97604 12.3709 8.23739 12.3709C7.59815 12.3709 6.79986 12.8983 6.59341 13.4553C6.57055 13.5172 6.53085 13.5701 6.47953 13.6072C6.42821 13.6443 6.36768 13.6637 6.3059 13.663ZM12.0316 11.7117C12.3943 11.7011 12.7547 11.7784 13.086 11.9378C13.4174 12.0973 13.7114 12.3348 13.9462 12.633C14.1769 12.3384 14.4655 12.1029 14.7911 11.9436C15.1167 11.7842 15.4712 11.705 15.8288 11.7117C16.376 11.7441 16.8991 11.9647 17.3214 12.3412C16.8901 9.34178 14.4157 7.58001 12.0071 7.58001C9.59845 7.58001 7.14854 9.33188 6.68822 12.3182C7.13084 11.9444 7.67231 11.732 8.23433 11.7117C8.59192 11.7049 8.94643 11.7841 9.27207 11.9434C9.59771 12.1028 9.88631 12.3383 10.1169 12.633C10.3518 12.3349 10.6458 12.0974 10.9771 11.938C11.3085 11.7785 11.6688 11.7012 12.0316 11.7117Z" fill="#0060A2"/>
<path d="M10.8143 19.9998C10.0496 19.9998 9.2345 19.4609 9.2345 18.4605C9.2345 18.3731 9.26673 18.2893 9.32409 18.2274C9.38145 18.1656 9.45924 18.1309 9.54036 18.1309C9.62148 18.1309 9.69928 18.1656 9.75664 18.2274C9.814 18.2893 9.84622 18.3731 9.84622 18.4605C9.84622 19.0653 10.3478 19.3406 10.8143 19.3406C11.0469 19.3479 11.2747 19.2687 11.4596 19.1164C11.5487 19.0366 11.6191 18.9354 11.6653 18.8209C11.7115 18.7064 11.7322 18.5819 11.7257 18.4572V12.0298C11.7257 11.9424 11.7579 11.8585 11.8153 11.7967C11.8727 11.7349 11.9505 11.7002 12.0316 11.7002C12.1127 11.7002 12.1905 11.7349 12.2478 11.7967C12.3052 11.8585 12.3374 11.9424 12.3374 12.0298V18.4572C12.344 18.6792 12.3031 18.8999 12.218 19.1022C12.1329 19.3045 12.0058 19.4831 11.8465 19.624C11.5525 19.8731 11.1881 20.0057 10.8143 19.9998Z" fill="#0060A2"/>
</svg>
