<svg width="60" height="54" viewBox="0 0 60 54" fill="none" xmlns="http://www.w3.org/2000/svg">
<path d="M46.6404 0C44.9894 0 43.5699 1.01574 42.9662 2.45865L38.2358 5.55221C37.6931 5.9071 37.5391 6.6374 37.8918 7.1833C38.2446 7.72931 38.9704 7.88412 39.513 7.52935L42.6561 5.47393V41.6876L26.2499 30.9584V16.2032L30.6708 13.3121C31.2135 12.9572 31.3675 12.2269 31.0147 11.681C30.662 11.135 29.9359 10.9802 29.3936 11.3349L24.7307 14.3843H9.49215C7.70728 14.3843 6.20177 15.6074 5.7581 17.2642L0.747067 19.2248C0.296718 19.4011 0 19.8375 0 20.3237V26.8379C0 27.3241 0.296718 27.7605 0.747067 27.9367L5.7581 29.8974C6.20166 31.5542 7.70728 32.7773 9.49215 32.7773H10.814L17.0465 50.2766C17.8397 52.5037 19.9524 54 22.3037 54C24.1186 54 25.8258 53.1085 26.8704 51.6155C27.9151 50.1224 28.1733 48.2048 27.5611 46.4859L22.6787 32.7773H24.7307L42.9662 44.7029C43.5698 46.1458 44.9893 47.1616 46.6404 47.1616C48.8375 47.1616 50.6248 45.3633 50.6248 43.1528V4.00873C50.6248 1.79827 48.8375 0 46.6404 0ZM2.34374 21.1303L5.62498 19.8464V27.3153L2.34374 26.0314V21.1303ZM7.96872 28.8865V18.2751C7.96872 17.43 8.65215 16.7424 9.49215 16.7424H23.9062V30.4192H9.49215C8.65215 30.4192 7.96872 29.7316 7.96872 28.8865ZM25.3547 47.2812C25.7153 48.2937 25.5693 49.3788 24.9539 50.2582C24.3387 51.1375 23.3727 51.6419 22.3037 51.6419C20.9392 51.6419 19.7132 50.7736 19.2529 49.4811L17.335 44.0961H18.8671C19.5143 44.0961 20.039 43.5682 20.039 42.917C20.039 42.2658 19.5143 41.738 18.8671 41.738H16.4951L15.3194 38.4367H16.8359C17.4831 38.4367 18.0078 37.9088 18.0078 37.2576C18.0078 36.6065 17.4831 36.0786 16.8359 36.0786H14.4795L13.3038 32.7773H20.1891L25.3547 47.2812ZM48.2811 43.1528C48.2811 44.0631 47.5451 44.8035 46.6404 44.8035C45.7358 44.8035 44.9998 44.0631 44.9998 43.1528V4.00873C44.9998 3.09852 45.7358 2.35808 46.6404 2.35808C47.5451 2.35808 48.2811 3.09852 48.2811 4.00873V43.1528Z" fill="#0060A2"/>
<path d="M58.8279 26.5873C59.4752 26.5873 59.9998 26.0595 59.9998 25.4083C59.9998 24.7571 59.4752 24.2292 58.8279 24.2292H54.1404C53.4932 24.2292 52.9685 24.7571 52.9685 25.4083C52.9685 26.0595 53.4932 26.5873 54.1404 26.5873H58.8279Z" fill="#0060A2"/>
<path d="M54.7695 18.5669C54.9682 18.5669 55.1698 18.516 55.3544 18.4088L59.4139 16.0507C59.9744 15.7252 60.1664 15.0041 59.8428 14.4402C59.5192 13.8761 58.8024 13.6829 58.242 14.0086L54.1825 16.3667C53.622 16.6922 53.4299 17.4134 53.7536 17.9773C53.9706 18.3555 54.3645 18.5669 54.7695 18.5669Z" fill="#0060A2"/>
<path d="M59.4139 34.7659L55.3544 32.4078C54.7939 32.0824 54.0771 32.2755 53.7536 32.8393C53.4299 33.4032 53.622 34.1243 54.1825 34.4499L58.242 36.808C58.4266 36.9151 58.628 36.9661 58.8269 36.9661C59.2319 36.9661 59.6257 36.7547 59.8428 36.3764C60.1664 35.8125 59.9744 35.0914 59.4139 34.7659Z" fill="#0060A2"/>
<path d="M34.453 10.6114C34.7612 10.6114 35.0635 10.4852 35.2815 10.2659C35.4995 10.0466 35.6249 9.7424 35.6249 9.43231C35.6249 9.12222 35.4995 8.81803 35.2815 8.59872C35.0635 8.37942 34.7612 8.25326 34.453 8.25326C34.1448 8.25326 33.8425 8.37942 33.6245 8.59872C33.4065 8.81803 33.2811 9.12222 33.2811 9.43231C33.2811 9.7424 33.4065 10.0466 33.6245 10.2659C33.8425 10.4852 34.1448 10.6114 34.453 10.6114Z" fill="#0060A2"/>
</svg>
