<svg width="47" height="63" viewBox="0 0 47 63" fill="none" xmlns="http://www.w3.org/2000/svg">
<path d="M23.4999 0C13.816 0 5.93745 7.9129 5.93745 17.6391V26.2762C5.93745 26.8643 6.41268 27.3413 6.99829 27.3413H12.8859C13.4715 27.3413 13.9463 26.8643 13.9463 26.2762V17.6391C13.9463 12.3484 18.232 8.04394 23.4998 8.04394C28.7676 8.04394 33.0532 12.3484 33.0532 17.6391V26.2762C33.0532 26.8643 33.5285 27.3413 34.1143 27.3413H40.0018C40.5874 27.3413 41.0623 26.8643 41.0623 26.2762V17.6391C41.0624 7.9129 33.1839 0 23.4999 0ZM38.9415 25.2111H35.1745V17.6391C35.1745 11.1738 29.9373 5.91376 23.5001 5.91376C17.0629 5.91376 11.8258 11.1738 11.8258 17.6391V25.2111H8.05876V17.6391C8.05876 9.0875 14.9856 2.13031 23.5 2.13031C32.0145 2.13031 38.9415 9.0875 38.9415 17.6391V25.2111Z" fill="#0060A2"/>
<path d="M42.4441 25.2111H4.556C2.04388 25.2111 0 27.2639 0 29.7869V58.4241C0 60.9472 2.04388 63 4.556 63H42.4441C44.9562 63 47 60.9472 47 58.424V29.7869C47 27.2639 44.9562 25.2111 42.4441 25.2111ZM44.8791 58.424C44.8791 59.7726 43.7867 60.8697 42.4441 60.8697H4.556C3.21326 60.8697 2.12094 59.7726 2.12094 58.424V29.7869C2.12094 28.4383 3.21326 27.3413 4.556 27.3413H42.4441C43.7867 27.3413 44.8791 28.4383 44.8791 29.7869V58.424Z" fill="#0060A2"/>
<path d="M27.0663 45.5004C28.3053 44.4519 29.0263 42.9191 29.0263 41.2719C29.0263 38.2113 26.5471 35.7214 23.4999 35.7214C20.4525 35.7214 17.9733 38.2113 17.9733 41.2719C17.9733 42.9191 18.6943 44.4519 19.9335 45.5006L18.7414 51.2053C18.6758 51.5196 18.7546 51.8465 18.956 52.0957C19.1575 52.3446 19.4599 52.4895 19.7793 52.4895H27.2205C27.54 52.4895 27.8423 52.3448 28.0436 52.0957C28.2449 51.8464 28.3237 51.5195 28.2581 51.2056L27.0663 45.5004ZM25.3194 44.1517C24.947 44.3899 24.7602 44.835 24.8509 45.2691L25.9144 50.359H21.0855L22.1492 45.2694C22.2398 44.8352 22.0534 44.3901 21.6807 44.1521C20.6874 43.5171 20.0944 42.4403 20.0944 41.272C20.0944 39.3861 21.622 37.8518 23.4999 37.8518C25.3776 37.8518 26.9052 39.3861 26.9052 41.272C26.9055 42.4406 26.3125 43.5171 25.3194 44.1517Z" fill="#0060A2"/>
</svg>
